{

  "CompanyName": "constructiontest",
  "UserName": "chhoturam.jat@bizruntime.com",
  "PassWord": "VisurTechno2020@VTC",
  "OTPLink": "https://qa-enterprises.visur.live:8797/GetOtp?Key=chhoturam.jat@bizruntime.com@constructiontest&app=constructionapp"

}